…
```r
Height
```

```
## # A tibble: 1,192 x 6
##     earn height sex       ed   age race    
##    <dbl>  <dbl> <chr>  <dbl> <dbl> <chr>   
##  1 50000   74.4 male      16    45 white   
##  2 60000   65.5 female    16    58 white   
##  3 30000   63.6 female    16    29 white   
##  4 50000   63.1 female    16    91 other   
##  5 51000   63.4 female    17    39 white   
##  6  9000   64.4 female    15    26 white   
##  7 29000   61.7 female    12    49 white   
##  8 32000   72.7 male      17    46 white   
##  9  2000   72.0 male      15    21 hispanic
## 10 27000   72.2 male      12    26 white   
## # ... with 1,182 more rows
```
…
```r
HeightEd1 <- HeightEd %>%
  group_by(race) %>%
  count(ed)

HeightEd1
```

```
## # A tibble: 24 x 3
## # Groups:   race [4]
##    race     ed                   n
##    <chr>    <fct>            <int>
##  1 black    primary              2
##  2 black    secondary           14
##  3 black    highschoolgrad      36
##  4 black    associates          38
##  5 black    bachelors           13
##  6 black    mastersdoctorate     9
##  7 hispanic primary              3
##  8 hispanic secondary            6
##  9 hispanic highschoolgrad      19
## 10 hispanic associates          22
## # ... with 14 more rows
```
…
```r
HeightEd3 <- HeightEd %>%
  group_by(race) %>%
  count(earn)

HeightEd3
```

```
## # A tibble: 228 x 3
## # Groups:   race [4]
##    race   earn     n
##    <chr> <dbl> <int>
##  1 black   600     1
##  2 black  1000     2
##  3 black  1200     1
##  4 black  2100     1
##  5 black  3000     3
##  6 black  3192     1
##  7 black  4000     2
##  8 black  4700     1
##  9 black  5000     2
## 10 black  6000     1
## # ... with 218 more rows
```
…
