…
```r
iris_data <- as_tibble (iris)
iris_data
```

```
## # A tibble: 150 x 5
##    Sepal.Length Sepal.Width Petal.Length Petal.Width Species
##           <dbl>       <dbl>        <dbl>       <dbl> <fct>  
##  1          5.1         3.5          1.4         0.2 setosa 
##  2          4.9         3            1.4         0.2 setosa 
##  3          4.7         3.2          1.3         0.2 setosa 
##  4          4.6         3.1          1.5         0.2 setosa 
##  5          5           3.6          1.4         0.2 setosa 
##  6          5.4         3.9          1.7         0.4 setosa 
##  7          4.6         3.4          1.4         0.3 setosa 
##  8          5           3.4          1.5         0.2 setosa 
##  9          4.4         2.9          1.4         0.2 setosa 
## 10          4.9         3.1          1.5         0.1 setosa 
## # ... with 140 more rows
```
…
```r
testdat<-select(iris_data,Species,Petal.Width)
testdat
```

```
## # A tibble: 150 x 2
##    Species Petal.Width
##    <fct>         <dbl>
##  1 setosa          0.2
##  2 setosa          0.2
##  3 setosa          0.2
##  4 setosa          0.2
##  5 setosa          0.2
##  6 setosa          0.4
##  7 setosa          0.3
##  8 setosa          0.2
##  9 setosa          0.2
## 10 setosa          0.1
## # ... with 140 more rows
```
…
```r
iris_ranking<-arrange(iris_data, desc(Petal.Length))
mutate(iris_ranking, rank=min_rank(Petal.Length))
```

```
## # A tibble: 150 x 6
##    Sepal.Length Sepal.Width Petal.Length Petal.Width Species    rank
##           <dbl>       <dbl>        <dbl>       <dbl> <fct>     <int>
##  1          7.7         2.6          6.9         2.3 virginica   150
##  2          7.7         3.8          6.7         2.2 virginica   148
##  3          7.7         2.8          6.7         2   virginica   148
##  4          7.6         3            6.6         2.1 virginica   147
##  5          7.9         3.8          6.4         2   virginica   146
##  6          7.3         2.9          6.3         1.8 virginica   145
##  7          7.2         3.6          6.1         2.5 virginica   142
##  8          7.4         2.8          6.1         1.9 virginica   142
##  9          7.7         3            6.1         2.3 virginica   142
## 10          6.3         3.3          6           2.5 virginica   140
## # ... with 140 more rows
```
…
