…
```r
movie
```

```
## # A tibble: 146 x 22
##    FILM         RottenTomatoes RottenTomatoes_~ Metacritic Metacritic_User  IMDB
##    <chr>                 <dbl>            <dbl>      <dbl>           <dbl> <dbl>
##  1 Avengers: A~             74               86         66             7.1   7.8
##  2 Cinderella ~             85               80         67             7.5   7.1
##  3 Ant-Man (20~             80               90         64             8.1   7.8
##  4 Do You Beli~             18               84         22             4.7   5.4
##  5 Hot Tub Tim~             14               28         29             3.4   5.1
##  6 The Water D~             63               62         50             6.8   7.2
##  7 Irrational ~             42               53         53             7.6   6.9
##  8 Top Five (2~             86               64         81             6.8   6.5
##  9 Shaun the S~             99               82         81             8.8   7.4
## 10 Love & Merc~             89               87         80             8.5   7.8
## # ... with 136 more rows, and 16 more variables: Fandango_Stars <dbl>,
## #   Fandango_Ratingvalue <dbl>, RT_norm <dbl>, RT_user_norm <dbl>,
## #   Metacritic_norm <dbl>, Metacritic_user_nom <dbl>, IMDB_norm <dbl>,
## #   RT_norm_round <dbl>, RT_user_norm_round <dbl>, Metacritic_norm_round <dbl>,
## #   Metacritic_user_norm_round <dbl>, IMDB_norm_round <dbl>,
## #   Metacritic_user_vote_count <dbl>, IMDB_user_vote_count <dbl>,
## #   Fandango_votes <dbl>, Fandango_Difference <dbl>
```
…
