…
```r
age1
```

```
## # A tibble: 100,779 x 13
##     ...1  year month intent    police sex     age race  hispanic place education
##    <dbl> <dbl> <int> <chr>      <dbl> <chr> <dbl> <chr>    <dbl> <chr> <chr>    
##  1     1  2012     1 Suicide        0 M        34 Asia~      100 Home  BA+      
##  2     2  2012     1 Suicide        0 F        21 White      100 Stre~ Some col~
##  3     3  2012     1 Suicide        0 M        60 White      100 Othe~ BA+      
##  4     4  2012     2 Suicide        0 M        64 White      100 Home  BA+      
##  5     5  2012     2 Suicide        0 M        31 White      100 Othe~ HS/GED   
##  6     6  2012     2 Suicide        0 M        17 Nati~      100 Home  Less tha~
##  7     7  2012     2 Undeterm~      0 M        48 White      100 Home  HS/GED   
##  8     8  2012     3 Suicide        0 M        41 Nati~      100 Home  HS/GED   
##  9     9  2012     2 Accident~      0 M        50 White      100 Othe~ Some col~
## 10    11  2012     2 Suicide        0 M        30 White      100 Home  Some col~
## # ... with 100,769 more rows, and 2 more variables: agebracket <fct>,
## #   season <chr>
```
…
