…
```r
library(dygraphs)
```

```
## Warning: package 'dygraphs' was built under R version 4.1.3
```
#My stocks AAPL, TSLA, HD My friend: AMZN, F, GOOGL

```r
(Apple <- tq_get("AAPL", get = "stock.prices"))
```

```
## # A tibble: 2,727 x 8
##    symbol date        open  high   low close    volume adjusted
##    <chr>  <date>     <dbl> <dbl> <dbl> <dbl>     <dbl>    <dbl>
##  1 AAPL   2012-01-03  14.6  14.7  14.6  14.7 302220800     12.5
##  2 AAPL   2012-01-04  14.6  14.8  14.6  14.8 260022000     12.6
##  3 AAPL   2012-01-05  14.8  14.9  14.7  14.9 271269600     12.7
##  4 AAPL   2012-01-06  15.0  15.1  15.0  15.1 318292800     12.9
##  5 AAPL   2012-01-09  15.2  15.3  15.0  15.1 394024400     12.9
##  6 AAPL   2012-01-10  15.2  15.2  15.1  15.1 258196400     12.9
##  7 AAPL   2012-01-11  15.1  15.1  15.0  15.1 215084800     12.9
##  8 AAPL   2012-01-12  15.1  15.1  15.0  15.0 212587200     12.8
##  9 AAPL   2012-01-13  15.0  15.0  15.0  15.0 226021600     12.8
## 10 AAPL   2012-01-17  15.2  15.2  15.1  15.2 242897200     13.0
## # ... with 2,717 more rows
```

```r
(Tesla <- tq_get("TSLA", get = "stock.prices"))
```

```
## # A tibble: 2,727 x 8
##    symbol date        open  high   low close   volume adjusted
##    <chr>  <date>     <dbl> <dbl> <dbl> <dbl>    <dbl>    <dbl>
##  1 TSLA   2012-01-03  1.93  1.97  1.84  1.87 13921500     1.87
##  2 TSLA   2012-01-04  1.88  1.91  1.83  1.85  9451500     1.85
##  3 TSLA   2012-01-05  1.85  1.86  1.79  1.81 15082500     1.81
##  4 TSLA   2012-01-06  1.81  1.85  1.76  1.79 14794500     1.79
##  5 TSLA   2012-01-09  1.8   1.83  1.74  1.82 13455000     1.82
##  6 TSLA   2012-01-10  1.83  1.85  1.82  1.84 10077000     1.84
##  7 TSLA   2012-01-11  1.84  1.89  1.82  1.88 10084500     1.88
##  8 TSLA   2012-01-12  1.90  1.91  1.85  1.88 10939500     1.88
##  9 TSLA   2012-01-13  1.89  1.9   1.51  1.52 82506000     1.52
## 10 TSLA   2012-01-17  1.77  1.82  1.76  1.77 69774000     1.77
## # ... with 2,717 more rows
```

```r
(Home_Depot <- tq_get("HD", get = "stock.prices"))
```

```
## # A tibble: 2,727 x 8
##    symbol date        open  high   low close   volume adjusted
##    <chr>  <date>     <dbl> <dbl> <dbl> <dbl>    <dbl>    <dbl>
##  1 HD     2012-01-03  42.4  42.9  42.1  42.1  8452900     33.2
##  2 HD     2012-01-04  42.1  42.9  41.9  42.7 11085800     33.6
##  3 HD     2012-01-05  42.6  43.2  42.4  43.1 10245500     33.9
##  4 HD     2012-01-06  43    43.3  42.8  43.2  7285500     34.0
##  5 HD     2012-01-09  43.2  43.3  42.8  43.2  7346600     34.0
##  6 HD     2012-01-10  43.5  43.6  43.1  43.5  7497500     34.3
##  7 HD     2012-01-11  43.5  43.6  43.2  43.5  8222100     34.2
##  8 HD     2012-01-12  43.6  43.7  43.1  43.4  8449900     34.2
##  9 HD     2012-01-13  43.1  43.5  42.9  43.5  8076200     34.2
## 10 HD     2012-01-17  43.6  44.0  43.5  43.7  7709100     34.4
## # ... with 2,717 more rows
```

```r
(Amazon <- tq_get("AMZN", get = "stock.prices"))
```

```
## # A tibble: 2,727 x 8
##    symbol date        open  high   low close    volume adjusted
##    <chr>  <date>     <dbl> <dbl> <dbl> <dbl>     <dbl>    <dbl>
##  1 AMZN   2012-01-03  8.79  8.97  8.78  8.95 102216000     8.95
##  2 AMZN   2012-01-04  8.96  9.02  8.80  8.88  84104000     8.88
##  3 AMZN   2012-01-05  8.80  8.91  8.70  8.88  76182000     8.88
##  4 AMZN   2012-01-06  8.90  9.23  8.88  9.13 140168000     9.13
##  5 AMZN   2012-01-09  9.14  9.22  8.85  8.93 101138000     8.93
##  6 AMZN   2012-01-10  9.06  9.12  8.86  8.97  79716000     8.97
##  7 AMZN   2012-01-11  8.98  9.04  8.91  8.94  62054000     8.94
##  8 AMZN   2012-01-12  8.97  8.97  8.79  8.80 107716000     8.80
##  9 AMZN   2012-01-13  8.79  8.94  8.68  8.92  95070000     8.92
## 10 AMZN   2012-01-17  9.01  9.16  8.93  9.08 112890000     9.08
## # ... with 2,717 more rows
```

```r
(Ford <- tq_get("F", get = "stock.prices"))
```

```
## # A tibble: 2,727 x 8
##    symbol date        open  high   low close    volume adjusted
##    <chr>  <date>     <dbl> <dbl> <dbl> <dbl>     <dbl>    <dbl>
##  1 F      2012-01-03  11    11.2  11.0  11.1  45709900     7.35
##  2 F      2012-01-04  11.2  11.5  11.1  11.3  79725200     7.46
##  3 F      2012-01-05  11.3  11.6  11.2  11.6  67877500     7.65
##  4 F      2012-01-06  11.7  11.8  11.5  11.7  59840700     7.73
##  5 F      2012-01-09  11.8  12.0  11.7  11.8  53981500     7.79
##  6 F      2012-01-10  12    12.0  11.6  11.8 121750600     7.79
##  7 F      2012-01-11  11.7  12.2  11.6  12.1  63806000     7.97
##  8 F      2012-01-12  12.2  12.2  11.9  12.1  48687700     8.01
##  9 F      2012-01-13  12.0  12.1  11.8  12.0  46366700     7.95
## 10 F      2012-01-17  12.2  12.3  12.0  12.0  44398400     7.93
## # ... with 2,717 more rows
```

```r
(Google<- tq_get("GOOGL", get = "stock.prices"))
```

```
## # A tibble: 2,727 x 8
##    symbol date        open  high   low close    volume adjusted
##    <chr>  <date>     <dbl> <dbl> <dbl> <dbl>     <dbl>    <dbl>
##  1 GOOGL  2012-01-03  16.3  16.7  16.3  16.7 146912940     16.7
##  2 GOOGL  2012-01-04  16.6  16.8  16.5  16.7 114445440     16.7
##  3 GOOGL  2012-01-05  16.6  16.6  16.4  16.5 131184684     16.5
##  4 GOOGL  2012-01-06  16.5  16.5  16.3  16.3 107608284     16.3
##  5 GOOGL  2012-01-09  16.2  16.2  15.5  15.6 232671096     15.6
##  6 GOOGL  2012-01-10  15.8  15.9  15.4  15.6 175648176     15.6
##  7 GOOGL  2012-01-11  15.6  15.8  15.5  15.7  95904000     15.7
##  8 GOOGL  2012-01-12  15.8  15.8  15.7  15.8  74932992     15.8
##  9 GOOGL  2012-01-13  15.7  15.7  15.5  15.6  92199708     15.6
## 10 GOOGL  2012-01-17  15.8  15.8  15.7  15.7  76295628     15.7
## # ... with 2,717 more rows
```
…
