…
```
## `summarise()` has grouped output by 'year', 'continent'. You can override using
## the `.groups` argument.
```

```r
Wieght
```

```
## # A tibble: 1,692 x 4
## # Groups:   year, continent [60]
##     year continent average population
##    <int> <fct>       <dbl>      <dbl>
##  1  1952 Africa      1253.      928. 
##  2  1952 Africa      1253.      423. 
##  3  1952 Africa      1253.      174. 
##  4  1952 Africa      1253.       44.2
##  5  1952 Africa      1253.      447. 
##  6  1952 Africa      1253.      245. 
##  7  1952 Africa      1253.      501. 
##  8  1952 Africa      1253.      129. 
##  9  1952 Africa      1253.      268. 
## 10  1952 Africa      1253.       15.4
## # ... with 1,682 more rows
```
…
