…
```r
combine1$quartile <- ntile(combine1$value, 4)
combine1
```

```
## # A tibble: 163 x 15
##    County ~1 Count~2 Count~3 Longi~4 Latit~5 Geore~6 county   ...1 state State~7
##    <chr>       <dbl>   <dbl>   <dbl>   <dbl> <chr>   <chr>   <dbl> <dbl> <chr>  
##  1 Armstrong       3       3   -79.5    40.8 POINT ~ 3      235844    42 PA     
##  2 Armstrong       3       3   -79.5    40.8 POINT ~ 3      235875    42 PA     
##  3 Fulton         29      29   -78.1    39.9 POINT ~ 29     237703    42 PA     
##  4 Fulton         29      29   -78.1    39.9 POINT ~ 29     237734    42 PA     
##  5 Lycoming       41      41   -77.1    41.3 POINT ~ 41     238489    42 PA     
##  6 Mercer         43      43   -80.3    41.3 POINT ~ 43     238671    42 PA     
##  7 Lycoming       41      41   -77.1    41.3 POINT ~ 41     238520    42 PA     
##  8 Mercer         43      43   -80.3    41.3 POINT ~ 43     238702    42 PA     
##  9 Northumb~      49      49   -76.7    40.9 POINT ~ 49     239131    42 PA     
## 10 Snyder         55      55   -77.1    40.8 POINT ~ 55     239546    42 PA     
## # ... with 153 more rows, 5 more variables: countyname <chr>, variable <chr>,
## #   year <dbl>, value <dbl>, quartile <int>, and abbreviated variable names
## #   1: `County Name`, 2: `County Code Number`, 3: `County Code text`,
## #   4: Longitude, 5: Latitude, 6: `Georeferenced Latitude & Longitude`,
## #   7: StateAbbr
```
…
